module hexagonal

go 1.16

require (
	github.com/asaskevich/govalidator v0.0.0-20210307081110-f21760c49a8d // indirect
	github.com/codegangsta/negroni v1.0.0 // indirect
	github.com/golang/mock v1.6.0 // indirect
	github.com/gorilla/mux v1.8.0 // indirect
	github.com/mattn/go-sqlite3 v1.14.11 // indirect
	github.com/satori/go.uuid v1.2.0 // indirect
	github.com/spf13/cobra v1.3.0 // indirect
	github.com/stretchr/testify v1.7.0 // indirect
)
